{
    "header": {
        "BASE_URL":"https://api-stage.telkomdigitalsolution.co",
        "clientId":"dGVsa29tZGlnaXRhbHNvbHV0aW9uc3Q0Zw==",
        "clientSecret": "YzU1YjAzYWUtM2FlMy00OTAxLTlkYmQtZDI4ZmJhYmRjMDE2"
    }
}